Introdução ao software R: Aplicações a Ciência Florestal
…
A principal diferença entre data.frame e tibble é a forma em que o tibble é apresentada no console.

Carregando um conjunto de dados para o formato tibble

madeira <- as.tibble(read.table(file.choose(),header=T))

## Warning: `as.tibble()` was deprecated in tibble 2.0.0.
## Please use `as_tibble()` instead.
## The signature and semantics have changed, see `?as_tibble`.
## This warning is displayed once every 8 hours.
## Call `lifecycle::last_warnings()` to see where this warning was generated.

madeira

## # A tibble: 80 x 7
##    Esp         Dens DensCarv    MV Cabono Cinza PoderCalor
##    <chr>      <dbl>    <dbl> <dbl>  <dbl> <dbl>      <dbl>
##  1 Urograndis 0.466    0.299  29.0   70.4 0.542      7277.
##  2 Urograndis 0.48     0.322  30.0   69.5 0.5        7247.
##  3 Urograndis 0.448    0.301  29.2   70.2 0.6        7269.
##  4 Urograndis 0.466    0.295  28.8   70.6 0.608      7283.
##  5 Urograndis 0.456    0.309  29.7   69.8 0.542      7257.
##  6 Urograndis 0.460    0.297  32.6   66.8 0.533      7158.
##  7 Urograndis 0.467    0.316  30.4   69.0 0.600      7229.
##  8 Urograndis 0.457    0.300  31.9   67.6 0.542      7182.
##  9 Urograndis 0.472    0.296  30.8   68.8 0.458      7223.
## 10 Urograndis 0.472    0.306  30.3   69.2 0.567      7235.
## # ... with 70 more rows
…
Com essas funções temos uma flexibilidade incrível para transformar nossos dados.

Estrutura: funcao(base_dados, variaveis)

11.2.1 Função select()

names(madeira)

## [1] "Esp"        "Dens"       "DensCarv"   "MV"         "Cabono"    
## [6] "Cinza"      "PoderCalor"

madeira %>% select(Dens, PoderCalor)

## # A tibble: 80 x 2
##     Dens PoderCalor
##    <dbl>      <dbl>
##  1 0.466      7277.
##  2 0.48       7247.
##  3 0.448      7269.
##  4 0.466      7283.
##  5 0.456      7257.
##  6 0.460      7158.
##  7 0.467      7229.
##  8 0.457      7182.
##  9 0.472      7223.
## 10 0.472      7235.
## # ... with 70 more rows

madeira %>% select(-Esp)

## # A tibble: 80 x 6
##     Dens DensCarv    MV Cabono Cinza PoderCalor
##    <dbl>    <dbl> <dbl>  <dbl> <dbl>      <dbl>
##  1 0.466    0.299  29.0   70.4 0.542      7277.
##  2 0.48     0.322  30.0   69.5 0.5        7247.
##  3 0.448    0.301  29.2   70.2 0.6        7269.
##  4 0.466    0.295  28.8   70.6 0.608      7283.
##  5 0.456    0.309  29.7   69.8 0.542      7257.
##  6 0.460    0.297  32.6   66.8 0.533      7158.
##  7 0.467    0.316  30.4   69.0 0.600      7229.
##  8 0.457    0.300  31.9   67.6 0.542      7182.
##  9 0.472    0.296  30.8   68.8 0.458      7223.
## 10 0.472    0.306  30.3   69.2 0.567      7235.
## # ... with 70 more rows
…
11.2.2 Função arrange()

Orderna linhas

Se a variável for categórica ordena por ordem alfabética

Se a variável for numérica ordena do menor para o maior

Se a varíavel for um fator, ordena pelos níveis do fator

madeira %>% arrange(Esp,desc(PoderCalor))

## # A tibble: 80 x 7
##    Esp            Dens DensCarv    MV Cabono Cinza PoderCalor
##    <chr>         <dbl>    <dbl> <dbl>  <dbl> <dbl>      <dbl>
##  1 camaldulensis 0.520    0.350  18.7   80.4 0.917      7608.
##  2 camaldulensis 0.523    0.352  18.9   80.2 0.95       7601.
##  3 camaldulensis 0.509    0.339  19.2   79.5 1.23       7581.
##  4 camaldulensis 0.505    0.328  19.8   79.4 0.842      7576.
##  5 camaldulensis 0.512    0.342  19.8   79.4 0.85       7576.
##  6 camaldulensis 0.479    0.311  19.9   79.3 0.792      7572.
##  7 camaldulensis 0.505    0.332  20.0   79.2 0.8        7570.
##  8 camaldulensis 0.494    0.326  20.1   79.1 0.758      7567.
##  9 camaldulensis 0.542    0.362  20.3   78.9 0.792      7560.
## 10 camaldulensis 0.518    0.327  20.9   78.0 1.17       7528.
## # ... with 70 more rows
…
11.2.4 Função mutate()

Modifica e cria colunas

madeira %>% 
  mutate(
    DensCarvP = DensCarv/Dens*100
  )

## # A tibble: 80 x 8
##    Esp         Dens DensCarv    MV Cabono Cinza PoderCalor DensCarvP
##    <chr>      <dbl>    <dbl> <dbl>  <dbl> <dbl>      <dbl>     <dbl>
##  1 Urograndis 0.466    0.299  29.0   70.4 0.542      7277.      64.2
##  2 Urograndis 0.48     0.322  30.0   69.5 0.5        7247.      67.0
##  3 Urograndis 0.448    0.301  29.2   70.2 0.6        7269.      67.4
##  4 Urograndis 0.466    0.295  28.8   70.6 0.608      7283.      63.2
##  5 Urograndis 0.456    0.309  29.7   69.8 0.542      7257.      67.8
##  6 Urograndis 0.460    0.297  32.6   66.8 0.533      7158.      64.7
##  7 Urograndis 0.467    0.316  30.4   69.0 0.600      7229.      67.6
##  8 Urograndis 0.457    0.300  31.9   67.6 0.542      7182.      65.6
##  9 Urograndis 0.472    0.296  30.8   68.8 0.458      7223.      62.7
## 10 Urograndis 0.472    0.306  30.3   69.2 0.567      7235.      64.9
## # ... with 70 more rows
…
